…
For a given analysis, you may only need a subset of the columns in a
data table; extracting only what you need can helpfully de-clutter,
especially when you have large datasets.

Select columns using *select*.

\*\*select(dataname, variable\*)\*\*

``` r
# You can specify the columns you want to keep by naming all of them:

select(litters_data, group, litter_number, gd0_weight, pups_born_alive)
```

    ## # A tibble: 49 x 4
    ##   group litter_number gd0_weight pups_born_alive
    ##   <chr> <chr>              <dbl>           <int>
    ## 1 Con7  #85                 19.7               3
    ## 2 Con7  #1/2/95/2           27                 8
    ## 3 Con7  #5/5/3/83/3-3       26                 6
    ## # ... with 46 more rows

``` r
# return with the order above

# If you want to select everything, here is a helper function:
select(litters_data, litter_number, group, everything())
```

    ## # A tibble: 49 x 8
    ##   litter_number group gd0_weight gd18_weight gd_of_birth pups_born_alive
    ##   <chr>         <chr>      <dbl>       <dbl>       <int>           <int>
    ## 1 #85           Con7        19.7        34.7          20               3
    ## 2 #1/2/95/2     Con7        27          42            19               8
    ## 3 #5/5/3/83/3-3 Con7        26          41.4          19               6
    ## # ... with 46 more rows, and 2 more variables: pups_dead_birth <int>,
    ## #   pups_survive <int>

``` r
# If you want to select column names that start with “pups”, here is a helper function:
select(litters_data, litter_number, gd0_weight, starts_with("pups"))
```

    ## # A tibble: 49 x 5
    ##   litter_number gd0_weight pups_born_alive pups_dead_birth pups_survive
    ##   <chr>              <dbl>           <int>           <int>        <int>
    ## 1 #85                 19.7               3               4            3
    ## 2 #1/2/95/2           27                 8               0            7
    ## 3 #5/5/3/83/3-3       26                 6               0            5
    ## # ... with 46 more rows

``` r
# You can specify the specify a range of columns to keep:
select(litters_data, group:gd_of_birth)
```

    ## # A tibble: 49 x 5
    ##   group litter_number gd0_weight gd18_weight gd_of_birth
    ##   <chr> <chr>              <dbl>       <dbl>       <int>
    ## 1 Con7  #85                 19.7        34.7          20
    ## 2 Con7  #1/2/95/2           27          42            19
    ## 3 Con7  #5/5/3/83/3-3       26          41.4          19
    ## # ... with 46 more rows

``` r
# You can also specify columns you’d like to remove:

select(litters_data, -pups_survive)
```

    ## # A tibble: 49 x 7
    ##   group litter_number gd0_weight gd18_weight gd_of_birth pups_born_alive
    ##   <chr> <chr>              <dbl>       <dbl>       <int>           <int>
    ## 1 Con7  #85                 19.7        34.7          20               3
    ## 2 Con7  #1/2/95/2           27          42            19               8
    ## 3 Con7  #5/5/3/83/3-3       26          41.4          19               6
    ## # ... with 46 more rows, and 1 more variable: pups_dead_birth <int>

``` r
# You can rename variables as part of this process:

select(litters_data, GROUP = group, LiTtEr_NuMbEr = litter_number)
```

    ## # A tibble: 49 x 2
    ##   GROUP LiTtEr_NuMbEr
    ##   <chr> <chr>        
    ## 1 Con7  #85          
    ## 2 Con7  #1/2/95/2    
    ## 3 Con7  #5/5/3/83/3-3
    ## # ... with 46 more rows

``` r
# If all you want to do is rename something, you can use rename instead of select. This will rename the variables you care about, and keep everything else:

rename(litters_data, GROUP = group, LiTtEr_NuMbEr = litter_number)
```

    ## # A tibble: 49 x 8
    ##   GROUP LiTtEr_NuMbEr gd0_weight gd18_weight gd_of_birth pups_born_alive
    ##   <chr> <chr>              <dbl>       <dbl>       <int>           <int>
    ## 1 Con7  #85                 19.7        34.7          20               3
    ## 2 Con7  #1/2/95/2           27          42            19               8
    ## 3 Con7  #5/5/3/83/3-3       26          41.4          19               6
    ## # ... with 46 more rows, and 2 more variables: pups_dead_birth <int>,
    ## #   pups_survive <int>

There are some handy helper functions for select; read about all of them
using ?select\_helpers. The one I use most frequently is everything(),
which is handy for reorganizing columns without discarding anything:

``` r
select(litters_data, litter_number, group, everything())
```

    ## # A tibble: 49 x 8
    ##   litter_number group gd0_weight gd18_weight gd_of_birth pups_born_alive
    ##   <chr>         <chr>      <dbl>       <dbl>       <int>           <int>
    ## 1 #85           Con7        19.7        34.7          20               3
    ## 2 #1/2/95/2     Con7        27          42            19               8
    ## 3 #5/5/3/83/3-3 Con7        26          41.4          19               6
    ## # ... with 46 more rows, and 2 more variables: pups_dead_birth <int>,
    ## #   pups_survive <int>
…
Lastly, like other functions in dplyr, select will export a dataframe
even if you only select one column. Mostly this is fine, but sometimes
you want the vector stored in the column.

To pull a single variable, use pull.

\#\#\#Leanring Assessment\#1: In the pups data, select the columns
containing litter number, sex, and PD ears.

``` r
select(pups_data, litter_number:pd_ears)
```

    ## # A tibble: 313 x 3
    ##   litter_number   sex pd_ears
    ##   <chr>         <int>   <int>
    ## 1 #85               1       4
    ## 2 #85               1       4
    ## 3 #1/2/95/2         1       5
    ## # ... with 310 more rows
…
However, I recommend against the creation of many data subsets (e.g. one
for each group). This can clutter up your workspace, and we’ll see good
tools for the analysis of subsets before long.

\#Learning Assessment \#2:

In the pups data: \* Filter to include only pups with sex 1 \* Filter to
include only pups with PD walk less than 11 and sex 2

``` r
filter(pups_data, sex == 1)
```

    ## # A tibble: 155 x 6
    ##   litter_number   sex pd_ears pd_eyes pd_pivot pd_walk
    ##   <chr>         <int>   <int>   <int>    <int>   <int>
    ## 1 #85               1       4      13        7      11
    ## 2 #85               1       4      13        7      12
    ## 3 #1/2/95/2         1       5      13        7       9
    ## # ... with 152 more rows

``` r
filter(pups_data, sex == 2 & pd_walk < 11)
```

    ## # A tibble: 127 x 6
    ##   litter_number   sex pd_ears pd_eyes pd_pivot pd_walk
    ##   <chr>         <int>   <int>   <int>    <int>   <int>
    ## 1 #1/2/95/2         2       4      13        7       9
    ## 2 #1/2/95/2         2       4      13        7      10
    ## 3 #1/2/95/2         2       5      13        8      10
    ## # ... with 124 more rows

## Mutate

Sometimes you need to select columns; sometimes you need to change them
or create new ones. You can do this using mutate.

The example below creates a new variable measuring the difference
between gd18\_weight and gd0\_weight and modifies the existing group
variable.

``` r
mutate(litters_data, wt_gain = gd18_weight - gd0_weight, group = str_to_lower(group))
```

    ## # A tibble: 49 x 9
    ##   group litter_number gd0_weight gd18_weight gd_of_birth pups_born_alive
    ##   <chr> <chr>              <dbl>       <dbl>       <int>           <int>
    ## 1 con7  #85                 19.7        34.7          20               3
    ## 2 con7  #1/2/95/2           27          42            19               8
    ## 3 con7  #5/5/3/83/3-3       26          41.4          19               6
    ## # ... with 46 more rows, and 3 more variables: pups_dead_birth <int>,
    ## #   pups_survive <int>, wt_gain <dbl>
…
\#\#Learning Assessment \#3

In the pups data:

  - Create a variable that subtracts 7 from PD pivot

  - Create a variable that is the sum of all the PD variable

<!-- end list -->

``` r
mutate(pups_data, pd_pivotsub7 = pd_pivot - 7, pd_sum = pd_ears + pd_eyes + pd_pivot + pd_walk)
```

    ## # A tibble: 313 x 8
    ##   litter_number   sex pd_ears pd_eyes pd_pivot pd_walk pd_pivotsub7 pd_sum
    ##   <chr>         <int>   <int>   <int>    <int>   <int>        <dbl>  <int>
    ## 1 #85               1       4      13        7      11            0     35
    ## 2 #85               1       4      13        7      12            0     36
    ## 3 #1/2/95/2         1       5      13        7       9            0     34
    ## # ... with 310 more rows
…
# get rid of all rows with missing value 
litters_data_with_vars_without_missing = 
  drop_na(litters_data_with_vars, wt_gain)

# show the data set
litters_data_with_vars_without_missing
```

    ## # A tibble: 31 x 8
    ##   group litter_number gd0_weight gd18_weight gd_of_birth pups_born_alive
    ##   <chr> <chr>              <dbl>       <dbl>       <int>           <int>
    ## 1 con7  #85                 19.7        34.7          20               3
    ## 2 con7  #1/2/95/2           27          42            19               8
    ## 3 con7  #5/5/3/83/3-3       26          41.4          19               6
    ## # ... with 28 more rows, and 2 more variables: pups_dead_birth <int>,
    ## #   wt_gain <dbl>
…
litters_data_clean # view the dataset
```

    ## # A tibble: 31 x 8
    ##   group litter_number gd0_weight gd18_weight gd_of_birth pups_born_alive
    ##   <chr> <chr>              <dbl>       <dbl>       <int>           <int>
    ## 1 con7  #85                 19.7        34.7          20               3
    ## 2 con7  #1/2/95/2           27          42            19               8
    ## 3 con7  #5/5/3/83/3-3       26          41.4          19               6
    ## # ... with 28 more rows, and 2 more variables: pups_dead_birth <int>,
    ## #   wt_gain <dbl>
…
litters_data = 
  read_csv("./data/FAS_litters.csv", col_types = "ccddiiii") %>%                 # load the dataset and then
  janitor::clean_names() %>%    # clean the names and then
  select(-pups_survive) %>%     # remove pups_survive and then
  mutate(
    wt_gain = gd18_weight - gd0_weight,  # create wt_gain variable and
    group = str_to_lower(group)) %>%    # make group variables into their lower cases and then
  drop_na(wt_gain)              # remove rows with missing wt_gain values

litters_data   # veiw dataset
```

    ## # A tibble: 31 x 8
    ##   group litter_number gd0_weight gd18_weight gd_of_birth pups_born_alive
    ##   <chr> <chr>              <dbl>       <dbl>       <int>           <int>
    ## 1 con7  #85                 19.7        34.7          20               3
    ## 2 con7  #1/2/95/2           27          42            19               8
    ## 3 con7  #5/5/3/83/3-3       26          41.4          19               6
    ## # ... with 28 more rows, and 2 more variables: pups_dead_birth <int>,
    ## #   wt_gain <dbl>
…
``` r
pups_data = 
  read_csv("./data/FAS_pups.csv",
  col_types = "ciiiii") %>%         # load data
  janitor::clean_names(dat = .) %>% # clean names
  filter(.data = ., sex == 1) %>%   # filter data to include only pups with sex 1
  select(.data = ., -pd_ears) %>%   # remove PD ears variable
  mutate(.data = .,
         pd_pivot_gt7 = pd_pivot >= 7)             # create a variable that indicates whether PD pivot is 7 or more days

pups_data 
```

    ## # A tibble: 155 x 6
    ##   litter_number   sex pd_eyes pd_pivot pd_walk pd_pivot_gt7
    ##   <chr>         <int>   <int>    <int>   <int> <lgl>       
    ## 1 #85               1      13        7      11 TRUE        
    ## 2 #85               1      13        7      12 TRUE        
    ## 3 #1/2/95/2         1      13        7       9 TRUE        
    ## # ... with 152 more rows
