…
#########
# I am not building a R package, but do I still need to do so?
#########
```

## Wide to long

``` r
pulse_data = haven::read_sas("./data/public_pulse_data.sas7bdat") %>%
  janitor::clean_names()
pulse_data
```

    ## # A tibble: 1,087 x 7
    ##       id   age sex   bdi_score_bl bdi_score_01m bdi_score_06m bdi_score_12m
    ##    <dbl> <dbl> <chr>        <dbl>         <dbl>         <dbl>         <dbl>
    ##  1 10003  48.0 male             7             1             2             0
    ##  2 10015  72.5 male             6            NA            NA            NA
    ##  3 10022  58.5 male            14             3             8            NA
    ##  4 10026  72.7 male            20             6            18            16
    ##  5 10035  60.4 male             4             0             1             2
    ##  6 10050  84.7 male             2            10            12             8
    ##  7 10078  31.3 male             4             0            NA            NA
    ##  8 10088  56.9 male             5            NA             0             2
    ##  9 10091  76.0 male             0             3             4             0
    ## 10 10092  74.2 fema~           10             2            11             6
    ## # ... with 1,077 more rows
…
``` r
pulse_tidy_data = 
  pivot_longer(
    pulse_data,
    bdi_score_bl:bdi_score_12m,
    names_to = "visit",
    values_to = "bdi"
  )

pulse_tidy_data
```

    ## # A tibble: 4,348 x 5
    ##       id   age sex   visit           bdi
    ##    <dbl> <dbl> <chr> <chr>         <dbl>
    ##  1 10003  48.0 male  bdi_score_bl      7
    ##  2 10003  48.0 male  bdi_score_01m     1
    ##  3 10003  48.0 male  bdi_score_06m     2
    ##  4 10003  48.0 male  bdi_score_12m     0
    ##  5 10015  72.5 male  bdi_score_bl      6
    ##  6 10015  72.5 male  bdi_score_01m    NA
    ##  7 10015  72.5 male  bdi_score_06m    NA
    ##  8 10015  72.5 male  bdi_score_12m    NA
    ##  9 10022  58.5 male  bdi_score_bl     14
    ## 10 10022  58.5 male  bdi_score_01m     3
    ## # ... with 4,338 more rows
…
``` r
pulse_tidy_data = 
  pivot_longer(
    pulse_data,
    bdi_score_bl:bdi_score_12m,
    names_to = "visit",
    names_prefix = "bdi_score_",
    values_to = "bdi")

pulse_tidy_data
```

    ## # A tibble: 4,348 x 5
    ##       id   age sex   visit   bdi
    ##    <dbl> <dbl> <chr> <chr> <dbl>
    ##  1 10003  48.0 male  bl        7
    ##  2 10003  48.0 male  01m       1
    ##  3 10003  48.0 male  06m       2
    ##  4 10003  48.0 male  12m       0
    ##  5 10015  72.5 male  bl        6
    ##  6 10015  72.5 male  01m      NA
    ##  7 10015  72.5 male  06m      NA
    ##  8 10015  72.5 male  12m      NA
    ##  9 10022  58.5 male  bl       14
    ## 10 10022  58.5 male  01m       3
    ## # ... with 4,338 more rows
…
print(pulse_data, n = 12)
```

    ## # A tibble: 4,348 x 5
    ##       id visit   age sex     bdi
    ##    <dbl> <fct> <dbl> <chr> <dbl>
    ##  1 10003 00m    48.0 male      7
    ##  2 10003 01m    48.0 male      1
    ##  3 10003 06m    48.0 male      2
    ##  4 10003 12m    48.0 male      0
    ##  5 10015 00m    72.5 male      6
    ##  6 10015 01m    72.5 male     NA
    ##  7 10015 06m    72.5 male     NA
    ##  8 10015 12m    72.5 male     NA
    ##  9 10022 00m    58.5 male     14
    ## 10 10022 01m    58.5 male      3
    ## 11 10022 06m    58.5 male      8
    ## 12 10022 12m    58.5 male     NA
    ## # ... with 4,336 more rows
…
  # arrange by litter number
  arrange(litter_number)
# Question: Why I can't proceed without this arrange()?
# Question solved. I forgot to take out the %>% 
  
#display the dataset
litters_data
```

    ## # A tibble: 49 x 10
    ##    dose  day_of_tx litter_number gd0_weight gd18_weight gd_of_birth
    ##    <chr> <chr>     <chr>              <dbl>       <dbl>       <int>
    ##  1 con   7         #1/2/95/2           27          42            19
    ##  2 con   7         #1/5/3/83/3-~       NA          NA            20
    ##  3 con   8         #1/6/2/2/95-2       NA          NA            20
    ##  4 mod   7         #1/82/3-2           NA          NA            19
    ##  5 low   8         #100                20          39.2          20
    ##  6 low   7         #101                23.8        42.7          20
    ##  7 low   7         #102                22.6        43.3          20
    ##  8 mod   7         #103                21.4        42.1          19
    ##  9 mod   7         #106                21.7        37.8          20
    ## 10 low   7         #107                22.6        42.4          20
    ## # ... with 39 more rows, and 4 more variables: pups_born_alive <int>,
    ## #   pups_dead_birth <int>, pups_survive <int>, wt_gain <dbl>
…
  # retains only litter_number, gd0_weight and gd18_weight
  select(litter_number, gd0_weight, gd18_weight) %>%
  
  # put gd0 and gd18 into one column called gd, and their values to a column called weight
  pivot_longer(
    gd0_weight:gd18_weight,
    names_to = "gd",
    values_to = "weight"
  ) %>% 
  
  # change the name of gd0_weight to 0 and so for 18, and put these 0 and 18's into gd column as observations
  mutate(gd = recode(gd, "gd0_weight" = 0, "gd18_weight" = 18))
```

    ## # A tibble: 98 x 3
    ##    litter_number      gd weight
    ##    <chr>           <dbl>  <dbl>
    ##  1 #1/2/95/2           0   27  
    ##  2 #1/2/95/2          18   42  
    ##  3 #1/5/3/83/3-3/2     0   NA  
    ##  4 #1/5/3/83/3-3/2    18   NA  
    ##  5 #1/6/2/2/95-2       0   NA  
    ##  6 #1/6/2/2/95-2      18   NA  
    ##  7 #1/82/3-2           0   NA  
    ##  8 #1/82/3-2          18   NA  
    ##  9 #100                0   20  
    ## 10 #100               18   39.2
    ## # ... with 88 more rows
…
# left join pups and litter, organize by "litter_number"
# this will keep everything in pups and discard NAs in pups
fas_data = 
  left_join(pup_data, litter_data, by = "litter_number")
fas_data
```

    ## # A tibble: 313 x 13
    ##    litter_number sex   pd_ears pd_eyes pd_pivot pd_walk group gd0_weight
    ##    <chr>         <chr>   <int>   <int>    <int>   <int> <chr>      <dbl>
    ##  1 #85           male        4      13        7      11 con7        19.7
    ##  2 #85           male        4      13        7      12 con7        19.7
    ##  3 #1/2/95/2     male        5      13        7       9 con7        27  
    ##  4 #1/2/95/2     male        5      13        8      10 con7        27  
    ##  5 #5/5/3/83/3-3 male        5      13        8      10 con7        26  
    ##  6 #5/5/3/83/3-3 male        5      14        6       9 con7        26  
    ##  7 #5/4/2/95/2   male       NA      14        5       9 con7        28.5
    ##  8 #4/2/95/3-3   male        4      13        6       8 con7        NA  
    ##  9 #4/2/95/3-3   male        4      13        7       9 con7        NA  
    ## 10 #2/2/95/3-2   male        4      NA        8      10 con7        NA  
    ## # ... with 303 more rows, and 5 more variables: gd18_weight <dbl>,
    ## #   gd_of_birth <int>, pups_born_alive <int>, pups_dead_birth <int>,
    ## #   wt_gain <dbl>
…
    ## Parsed with column specification:
    ## cols(
    ##   `What is your UNI?` = col_character(),
    ##   `What is your degree program?` = col_character(),
    ##   `Which most accurately describes your experience with Git?` = col_character()
    ## )

``` r
left_join(surv_os, surv_pr_git)
```

    ## Joining, by = "id"

    ## # A tibble: 175 x 4
    ##    id        os       prog  git_exp                                        
    ##    <chr>     <chr>    <chr> <chr>                                          
    ##  1 student_~ <NA>     MS    Pretty smooth: needed some work to connect Git~
    ##  2 student_~ Windows~ Other Pretty smooth: needed some work to connect Git~
    ##  3 student_~ Mac OS X MPH   Smooth: installation and connection with GitHu~
    ##  4 student_~ Windows~ MS    Smooth: installation and connection with GitHu~
    ##  5 student_~ Mac OS X MS    Smooth: installation and connection with GitHu~
    ##  6 student_~ Mac OS X MS    Smooth: installation and connection with GitHu~
    ##  7 student_~ Windows~ MPH   Pretty smooth: needed some work to connect Git~
    ##  8 student_~ Windows~ MPH   Pretty smooth: needed some work to connect Git~
    ##  9 student_~ Windows~ MPH   Pretty smooth: needed some work to connect Git~
    ## 10 student_~ Mac OS X <NA>  <NA>                                           
    ## # ... with 165 more rows

``` r
inner_join(surv_os, surv_pr_git)
```

    ## Joining, by = "id"

    ## # A tibble: 129 x 4
    ##    id        os       prog  git_exp                                        
    ##    <chr>     <chr>    <chr> <chr>                                          
    ##  1 student_~ <NA>     MS    Pretty smooth: needed some work to connect Git~
    ##  2 student_~ Windows~ Other Pretty smooth: needed some work to connect Git~
    ##  3 student_~ Mac OS X MPH   Smooth: installation and connection with GitHu~
    ##  4 student_~ Windows~ MS    Smooth: installation and connection with GitHu~
    ##  5 student_~ Mac OS X MS    Smooth: installation and connection with GitHu~
    ##  6 student_~ Mac OS X MS    Smooth: installation and connection with GitHu~
    ##  7 student_~ Windows~ MPH   Pretty smooth: needed some work to connect Git~
    ##  8 student_~ Windows~ MPH   Pretty smooth: needed some work to connect Git~
    ##  9 student_~ Windows~ MPH   Pretty smooth: needed some work to connect Git~
    ## 10 student_~ Windows~ MPH   Smooth: installation and connection with GitHu~
    ## # ... with 119 more rows

``` r
anti_join(surv_os, surv_pr_git)
```

    ## Joining, by = "id"

    ## # A tibble: 46 x 2
    ##    id          os                                     
    ##    <chr>       <chr>                                  
    ##  1 student_86  Mac OS X                               
    ##  2 student_91  Windows 10                             
    ##  3 student_24  Mac OS X                               
    ##  4 student_103 Mac OS X                               
    ##  5 student_163 Mac OS X                               
    ##  6 student_68  Other (Linux, Windows, 95, TI-89+, etc)
    ##  7 student_158 Mac OS X                               
    ##  8 student_19  Windows 10                             
    ##  9 student_43  Mac OS X                               
    ## 10 student_78  Mac OS X                               
    ## # ... with 36 more rows
…
